var _temp = {
  "success": true,
  "data": {
    "userList": {
      "content": [
        {
          "id": 353,
          "studentId": 333904044,
          "parentId": 258131,
          "parentType": null,
          "createDatetime": 1468316835000,
          "updateDatetime": 1468316835000,
          "status": 1,
          "englishLevel": 1,
          "channel": 1,
          "delivery": 5,
          "stuEnName": "",
          "stuRealName": "我一",
          "parentRealName": null,
          "parentTypeCode": 3,
          "genderCode": "M",
          "birthday": null,
          "email": "",
          "mobile": "",
          "userShippingAddress": {
            "id": 322,
            "userId": 258131,
            "sensitivePhone": "",
            "postCode": "",
            "provinceCode": -1,
            "provinceName": " ",
            "cityCode": -1,
            "cityName": "",
            "countyCode": -1,
            "countyName": "",
            "detailAddress": "",
            "createDatetime": 1468316836000,
            "updateDatetime": 1468317760000
          },
          "avatar": null,
          "lastLoginDatetime": 1468316835000
        },
        {
          "id": 352,
          "studentId": 333904045,
          "parentId": 258128,
          "parentType": null,
          "createDatetime": 1468310178000,
          "updateDatetime": 1468310178000,
          "status": 4,
          "englishLevel": 1,
          "channel": 1,
          "delivery": 5,
          "stuEnName": "",
          "stuRealName": "我二",
          "parentRealName": null,
          "parentTypeCode": 3,
          "genderCode": "N",
          "birthday": null,
          "email": "",
          "mobile": "",
          "userShippingAddress": {
            "id": 321,
            "userId": 258128,
            "sensitivePhone": "",
            "postCode": "",
            "provinceCode": 0,
            "provinceName": "",
            "cityCode": 0,
            "cityName": "",
            "countyCode": 0,
            "countyName": "",
            "detailAddress": "",
            "createDatetime": 1468310178000,
            "updateDatetime": 1468310178000
          },
          "avatar": null,
          "lastLoginDatetime": 1468310178000
        },
        {
          "id": 351,
          "studentId": 333904057,
          "parentId": 258127,
          "parentType": null,
          "createDatetime": 1468308303000,
          "updateDatetime": 1468308303000,
          "status": 4,
          "englishLevel": 1,
          "channel": 1,
          "delivery": 0,
          "stuEnName": "",
          "stuRealName": "",
          "parentRealName": null,
          "parentTypeCode": 3,
          "genderCode": "N",
          "birthday": null,
          "email": "",
          "mobile": "",
          "userShippingAddress": {
            "id": 320,
            "userId": 258127,
            "sensitivePhone": "",
            "postCode": "",
            "provinceCode": 0,
            "provinceName": "",
            "cityCode": 0,
            "cityName": "",
            "countyCode": 0,
            "countyName": "",
            "detailAddress": "",
            "createDatetime": 1468308303000,
            "updateDatetime": 1468308303000
          },
          "avatar": null,
          "lastLoginDatetime": 1468308985000
        },
        {
          "id": 350,
          "studentId": 333904056,
          "parentId": 258125,
          "parentType": null,
          "createDatetime": 1468307996000,
          "updateDatetime": 1468308034000,
          "status": 3,
          "englishLevel": 1,
          "channel": 1,
          "delivery": 0,
          "stuEnName": "aa",
          "stuRealName": "",
          "parentRealName": "aa",
          "parentTypeCode": 1,
          "genderCode": "M",
          "birthday": null,
          "email": "",
          "mobile": "",
          "userShippingAddress": {
            "id": 319,
            "userId": 258125,
            "sensitivePhone": "",
            "postCode": "",
            "provinceCode": 0,
            "provinceName": "",
            "cityCode": 0,
            "cityName": "",
            "countyCode": 0,
            "countyName": "",
            "detailAddress": "",
            "createDatetime": 1468307997000,
            "updateDatetime": 1468307997000
          },
          "avatar": null,
          "lastLoginDatetime": 1468308038000
        },
        {
          "id": 349,
          "studentId": 333904055,
          "parentId": 257468,
          "parentType": null,
          "createDatetime": 1468307601000,
          "updateDatetime": 1468307601000,
          "status": 1,
          "englishLevel": 1,
          "channel": 1,
          "delivery": 0,
          "stuEnName": "",
          "stuRealName": "",
          "parentRealName": null,
          "parentTypeCode": 3,
          "genderCode": "N",
          "birthday": null,
          "email": "",
          "mobile": "",
          "userShippingAddress": {
            "id": 16,
            "userId": 257468,
            "sensitivePhone": "",
            "postCode": "",
            "provinceCode": 0,
            "provinceName": "",
            "cityCode": 0,
            "cityName": "",
            "countyCode": 0,
            "countyName": "",
            "detailAddress": "",
            "createDatetime": 1464848422000,
            "updateDatetime": 1464848422000
          },
          "avatar": null,
          "lastLoginDatetime": 1468327498000
        },
        {
          "id": 348,
          "studentId": 333904054,
          "parentId": 258124,
          "parentType": null,
          "createDatetime": 1468306962000,
          "updateDatetime": 1468306962000,
          "status": 3,
          "englishLevel": 1,
          "channel": 1,
          "delivery": 5,
          "stuEnName": "",
          "stuRealName": "",
          "parentRealName": null,
          "parentTypeCode": 3,
          "genderCode": "N",
          "birthday": null,
          "email": "",
          "mobile": "",
          "userShippingAddress": {
            "id": 318,
            "userId": 258124,
            "sensitivePhone": "",
            "postCode": "",
            "provinceCode": 0,
            "provinceName": "",
            "cityCode": 0,
            "cityName": "",
            "countyCode": 0,
            "countyName": "",
            "detailAddress": "",
            "createDatetime": 1468306962000,
            "updateDatetime": 1468306962000
          },
          "avatar": null,
          "lastLoginDatetime": 1468306962000
        },
        {
          "id": 219,
          "studentId": 30032,
          "parentId": 258122,
          "parentType": null,
          "createDatetime": 1465874406000,
          "updateDatetime": 1468305944000,
          "status": 1,
          "englishLevel": 1,
          "channel": 1,
          "delivery": 5,
          "stuEnName": "",
          "stuRealName": "刘畅",
          "parentRealName": null,
          "parentTypeCode": 3,
          "genderCode": "N",
          "birthday": null,
          "email": "",
          "mobile": "",
          "userShippingAddress": {
            "id": 317,
            "userId": 258122,
            "sensitivePhone": "",
            "postCode": "",
            "provinceCode": 0,
            "provinceName": "",
            "cityCode": 0,
            "cityName": "",
            "countyCode": 0,
            "countyName": "",
            "detailAddress": "",
            "createDatetime": 1468305944000,
            "updateDatetime": 1468305944000
          },
          "avatar": null,
          "lastLoginDatetime": 1468305944000
        },
        {
          "id": 347,
          "studentId": 333904049,
          "parentId": 258118,
          "parentType": null,
          "createDatetime": 1468303410000,
          "updateDatetime": 1468303410000,
          "status": 4,
          "englishLevel": 1,
          "channel": 1,
          "delivery": 5,
          "stuEnName": "",
          "stuRealName": "",
          "parentRealName": null,
          "parentTypeCode": 3,
          "genderCode": "N",
          "birthday": null,
          "email": "",
          "mobile": "",
          "userShippingAddress": {
            "id": 314,
            "userId": 258118,
            "sensitivePhone": "",
            "postCode": "",
            "provinceCode": 0,
            "provinceName": "",
            "cityCode": 0,
            "cityName": "",
            "countyCode": 0,
            "countyName": "",
            "detailAddress": "",
            "createDatetime": 1468303410000,
            "updateDatetime": 1468303410000
          },
          "avatar": null,
          "lastLoginDatetime": 1468303410000
        },
        {
          "id": 346,
          "studentId": 333904048,
          "parentId": 258117,
          "parentType": null,
          "createDatetime": 1468303398000,
          "updateDatetime": 1468303398000,
          "status": 1,
          "englishLevel": 1,
          "channel": 1,
          "delivery": 5,
          "stuEnName": "",
          "stuRealName": "",
          "parentRealName": null,
          "parentTypeCode": 3,
          "genderCode": "N",
          "birthday": null,
          "email": "",
          "mobile": "",
          "userShippingAddress": {
            "id": 313,
            "userId": 258117,
            "sensitivePhone": "",
            "postCode": "",
            "provinceCode": 0,
            "provinceName": "",
            "cityCode": 0,
            "cityName": "",
            "countyCode": 0,
            "countyName": "",
            "detailAddress": "",
            "createDatetime": 1468303399000,
            "updateDatetime": 1468303399000
          },
          "avatar": null,
          "lastLoginDatetime": 1468303398000
        },
        {
          "id": 345,
          "studentId": 333904047,
          "parentId": 258116,
          "parentType": null,
          "createDatetime": 1468302752000,
          "updateDatetime": 1468302752000,
          "status": 1,
          "englishLevel": 1,
          "channel": 1,
          "delivery": 5,
          "stuEnName": "",
          "stuRealName": "",
          "parentRealName": null,
          "parentTypeCode": 3,
          "genderCode": "N",
          "birthday": null,
          "email": "",
          "mobile": "",
          "userShippingAddress": {
            "id": 312,
            "userId": 258116,
            "sensitivePhone": "",
            "postCode": "",
            "provinceCode": 0,
            "provinceName": "",
            "cityCode": 0,
            "cityName": "",
            "countyCode": 0,
            "countyName": "",
            "detailAddress": "",
            "createDatetime": 1468302752000,
            "updateDatetime": 1468302752000
          },
          "avatar": null,
          "lastLoginDatetime": 1468302752000
        },
        {
          "id": 344,
          "studentId": 333904040,
          "parentId": 257468,
          "parentType": null,
          "createDatetime": 1468301868000,
          "updateDatetime": 1468301868000,
          "status": 1,
          "englishLevel": 1,
          "channel": 1,
          "delivery": 0,
          "stuEnName": "Jia",
          "stuRealName": "",
          "parentRealName": null,
          "parentTypeCode": 3,
          "genderCode": "M",
          "birthday": null,
          "email": "",
          "mobile": "",
          "userShippingAddress": {
            "id": 16,
            "userId": 257468,
            "sensitivePhone": "",
            "postCode": "",
            "provinceCode": 0,
            "provinceName": "",
            "cityCode": 0,
            "cityName": "",
            "countyCode": 0,
            "countyName": "",
            "detailAddress": "",
            "createDatetime": 1464848422000,
            "updateDatetime": 1464848422000
          },
          "avatar": null,
          "lastLoginDatetime": 1468327498000
        },
        {
          "id": 343,
          "studentId": 333904039,
          "parentId": 257835,
          "parentType": null,
          "createDatetime": 1468301783000,
          "updateDatetime": 1468301783000,
          "status": 1,
          "englishLevel": 1,
          "channel": 1,
          "delivery": 5,
          "stuEnName": "",
          "stuRealName": "",
          "parentRealName": null,
          "parentTypeCode": 3,
          "genderCode": "N",
          "birthday": null,
          "email": "",
          "mobile": "",
          "userShippingAddress": {
            "id": 311,
            "userId": 257835,
            "sensitivePhone": "",
            "postCode": "",
            "provinceCode": 0,
            "provinceName": "",
            "cityCode": 0,
            "cityName": "",
            "countyCode": 0,
            "countyName": "",
            "detailAddress": "",
            "createDatetime": 1468301783000,
            "updateDatetime": 1468301783000
          },
          "avatar": null,
          "lastLoginDatetime": 1468301783000
        },
        {
          "id": 342,
          "studentId": 333904038,
          "parentId": 258115,
          "parentType": null,
          "createDatetime": 1468301374000,
          "updateDatetime": 1468301374000,
          "status": 1,
          "englishLevel": 1,
          "channel": 1,
          "delivery": 5,
          "stuEnName": "",
          "stuRealName": "",
          "parentRealName": null,
          "parentTypeCode": 3,
          "genderCode": "N",
          "birthday": null,
          "email": "",
          "mobile": "",
          "userShippingAddress": {
            "id": 310,
            "userId": 258115,
            "sensitivePhone": "",
            "postCode": "",
            "provinceCode": 0,
            "provinceName": "",
            "cityCode": 0,
            "cityName": "",
            "countyCode": 0,
            "countyName": "",
            "detailAddress": "",
            "createDatetime": 1468301374000,
            "updateDatetime": 1468301374000
          },
          "avatar": null,
          "lastLoginDatetime": 1468301374000
        },
        {
          "id": 341,
          "studentId": 333904037,
          "parentId": 258114,
          "parentType": null,
          "createDatetime": 1468301332000,
          "updateDatetime": 1468301332000,
          "status": 1,
          "englishLevel": 1,
          "channel": 1,
          "delivery": 5,
          "stuEnName": "",
          "stuRealName": "",
          "parentRealName": null,
          "parentTypeCode": 3,
          "genderCode": "N",
          "birthday": null,
          "email": "",
          "mobile": "",
          "userShippingAddress": {
            "id": 309,
            "userId": 258114,
            "sensitivePhone": "",
            "postCode": "",
            "provinceCode": 0,
            "provinceName": "",
            "cityCode": 0,
            "cityName": "",
            "countyCode": 0,
            "countyName": "",
            "detailAddress": "",
            "createDatetime": 1468301332000,
            "updateDatetime": 1468301332000
          },
          "avatar": null,
          "lastLoginDatetime": 1468301332000
        },
        {
          "id": 340,
          "studentId": 333904036,
          "parentId": 258113,
          "parentType": null,
          "createDatetime": 1468301240000,
          "updateDatetime": 1468301240000,
          "status": 1,
          "englishLevel": 1,
          "channel": 1,
          "delivery": 5,
          "stuEnName": "",
          "stuRealName": "",
          "parentRealName": null,
          "parentTypeCode": 3,
          "genderCode": "N",
          "birthday": null,
          "email": "",
          "mobile": "",
          "userShippingAddress": {
            "id": 308,
            "userId": 258113,
            "sensitivePhone": "",
            "postCode": "",
            "provinceCode": 0,
            "provinceName": "",
            "cityCode": 0,
            "cityName": "",
            "countyCode": 0,
            "countyName": "",
            "detailAddress": "",
            "createDatetime": 1468301241000,
            "updateDatetime": 1468301241000
          },
          "avatar": null,
          "lastLoginDatetime": 1468301240000
        },
        {
          "id": 338,
          "studentId": 333904032,
          "parentId": 258110,
          "parentType": null,
          "createDatetime": 1468293762000,
          "updateDatetime": 1468293762000,
          "status": 1,
          "englishLevel": 1,
          "channel": 1,
          "delivery": 0,
          "stuEnName": "",
          "stuRealName": "",
          "parentRealName": null,
          "parentTypeCode": 3,
          "genderCode": "N",
          "birthday": null,
          "email": "",
          "mobile": "",
          "userShippingAddress": {
            "id": 306,
            "userId": 258110,
            "sensitivePhone": "",
            "postCode": "",
            "provinceCode": 0,
            "provinceName": "",
            "cityCode": 0,
            "cityName": "",
            "countyCode": 0,
            "countyName": "",
            "detailAddress": "",
            "createDatetime": 1468293762000,
            "updateDatetime": 1468293762000
          },
          "avatar": null,
          "lastLoginDatetime": 1468301054000
        },
        {
          "id": 339,
          "studentId": 333904033,
          "parentId": 258111,
          "parentType": null,
          "createDatetime": 1468293762000,
          "updateDatetime": 1468293762000,
          "status": 4,
          "englishLevel": 1,
          "channel": 1,
          "delivery": 0,
          "stuEnName": "",
          "stuRealName": "",
          "parentRealName": null,
          "parentTypeCode": 3,
          "genderCode": "N",
          "birthday": null,
          "email": "",
          "mobile": "",
          "userShippingAddress": {
            "id": 307,
            "userId": 258111,
            "sensitivePhone": "",
            "postCode": "",
            "provinceCode": 0,
            "provinceName": "",
            "cityCode": 0,
            "cityName": "",
            "countyCode": 0,
            "countyName": "",
            "detailAddress": "",
            "createDatetime": 1468293762000,
            "updateDatetime": 1468293762000
          },
          "avatar": null,
          "lastLoginDatetime": 1468293762000
        },
        {
          "id": 337,
          "studentId": 333904029,
          "parentId": 258106,
          "parentType": null,
          "createDatetime": 1468293082000,
          "updateDatetime": 1468293082000,
          "status": 4,
          "englishLevel": 1,
          "channel": 1,
          "delivery": 5,
          "stuEnName": "",
          "stuRealName": "",
          "parentRealName": null,
          "parentTypeCode": 3,
          "genderCode": "N",
          "birthday": null,
          "email": "",
          "mobile": "",
          "userShippingAddress": {
            "id": 302,
            "userId": 258106,
            "sensitivePhone": "",
            "postCode": "",
            "provinceCode": 0,
            "provinceName": "",
            "cityCode": 0,
            "cityName": "",
            "countyCode": 0,
            "countyName": "",
            "detailAddress": "",
            "createDatetime": 1468293082000,
            "updateDatetime": 1468293082000
          },
          "avatar": null,
          "lastLoginDatetime": 1468293082000
        },
        {
          "id": 336,
          "studentId": 333904028,
          "parentId": 257225,
          "parentType": null,
          "createDatetime": 1468293037000,
          "updateDatetime": 1468293037000,
          "status": 1,
          "englishLevel": 1,
          "channel": 1,
          "delivery": 5,
          "stuEnName": "",
          "stuRealName": "",
          "parentRealName": null,
          "parentTypeCode": 3,
          "genderCode": "N",
          "birthday": null,
          "email": "",
          "mobile": "",
          "userShippingAddress": {
            "id": 301,
            "userId": 257225,
            "sensitivePhone": "",
            "postCode": "",
            "provinceCode": 0,
            "provinceName": "",
            "cityCode": 0,
            "cityName": "",
            "countyCode": 0,
            "countyName": "",
            "detailAddress": "",
            "createDatetime": 1468293037000,
            "updateDatetime": 1468293037000
          },
          "avatar": null,
          "lastLoginDatetime": 1468293037000
        }
      ],
      "number": 0,
      "size": 20,
      "sort": null,
      "numberOfElements": 19,
      "last": false,
      "first": true,
      "totalElements": 353,
      "totalPages": 18
    }
  }
};